module gitlab.com/boriswaguia/aldo

go 1.13

require (
	github.com/pelletier/go-toml v1.6.0 // indirect
	github.com/spf13/afero v1.2.2 // indirect
	github.com/spf13/cast v1.3.1 // indirect
	github.com/spf13/cobra v0.0.5
	github.com/spf13/jwalterweatherman v1.1.0 // indirect
	github.com/spf13/pflag v1.0.5 // indirect
	github.com/spf13/viper v1.6.2 // indirect
	golang.org/x/sys v0.0.0-20200120151820-655fe14d7479 // indirect
	golang.org/x/text v0.3.2 // indirect
	gopkg.in/ini.v1 v1.51.1 // indirect
	gopkg.in/yaml.v2 v2.2.7 // indirect
)
